module whisper.go

go 1.19

require (
	github.com/charmbracelet/log v0.2.1
	github.com/labstack/echo/v4 v4.10.2
	github.com/oklog/ulid/v2 v2.1.0
	github.com/spf13/cobra v1.7.0
	go.temporal.io/sdk v1.22.1
)

require (
	github.com/aymanbagabas/go-osc52/v2 v2.0.1 // indirect
	github.com/charmbracelet/lipgloss v0.7.1 // indirect
	github.com/davecgh/go-spew v1.1.1 // indirect
	github.com/facebookgo/clock v0.0.0-20150410010913-600d898af40a // indirect
	github.com/go-logfmt/logfmt v0.6.0 // indirect
	github.com/gogo/googleapis v1.4.1 // indirect
	github.com/gogo/protobuf v1.3.2 // indirect
	github.com/gogo/status v1.1.1 // indirect
	github.com/golang-jwt/jwt v3.2.2+incompatible // indirect
	github.com/golang/mock v1.6.0 // indirect
	github.com/golang/protobuf v1.5.3 // indirect
	github.com/google/uuid v1.3.0 // indirect
	github.com/grpc-ecosystem/go-grpc-middleware v1.3.0 // indirect
	github.com/inconshreveable/mousetrap v1.1.0 // indirect
	github.com/labstack/gommon v0.4.0 // indirect
	github.com/lucasb-eyer/go-colorful v1.2.0 // indirect
	github.com/mattn/go-colorable v0.1.13 // indirect
	github.com/mattn/go-isatty v0.0.18 // indirect
	github.com/mattn/go-runewidth v0.0.14 // indirect
	github.com/muesli/reflow v0.3.0 // indirect
	github.com/muesli/termenv v0.15.1 // indirect
	github.com/pborman/uuid v1.2.1 // indirect
	github.com/pmezard/go-difflib v1.0.0 // indirect
	github.com/rivo/uniseg v0.2.0 // indirect
	github.com/robfig/cron v1.2.0 // indirect
	github.com/spf13/pflag v1.0.5 // indirect
	github.com/stretchr/objx v0.5.0 // indirect
	github.com/stretchr/testify v1.8.2 // indirect
	github.com/valyala/bytebufferpool v1.0.0 // indirect
	github.com/valyala/fasttemplate v1.2.2 // indirect
	go.temporal.io/api v1.19.1-0.20230322213042-07fb271d475b // indirect
	go.uber.org/atomic v1.9.0 // indirect
	golang.org/x/crypto v0.6.0 // indirect
	golang.org/x/net v0.8.0 // indirect
	golang.org/x/sys v0.6.0 // indirect
	golang.org/x/text v0.8.0 // indirect
	golang.org/x/time v0.3.0 // indirect
	google.golang.org/genproto v0.0.0-20230322174352-cde4c949918d // indirect
	google.golang.org/grpc v1.54.0 // indirect
	google.golang.org/protobuf v1.30.0 // indirect
	gopkg.in/yaml.v3 v3.0.1 // indirect
)
